<svg xmlns="http://www.w3.org/2000/svg" width="641.156" height="709.53" viewBox="0 0 641.156 709.53">
  <metadata><?xpacket begin="﻿" id="W5M0MpCehiHzreSzNTczkc9d"?>
<x:xmpmeta xmlns:x="adobe:ns:meta/" x:xmptk="Adobe XMP Core 5.6-c138 79.159824, 2016/09/14-01:09:01        ">
   <rdf:RDF xmlns:rdf="http://www.w3.org/1999/02/22-rdf-syntax-ns#">
      <rdf:Description rdf:about=""/>
   </rdf:RDF>
</x:xmpmeta>
                                                                                                    
                                                                                                    
                                                                                                    
                                                                                                    
                                                                                                    
                                                                                                    
                                                                                                    
                                                                                                    
                                                                                                    
                                                                                                    
                                                                                                    
                                                                                                    
                                                                                                    
                                                                                                    
                                                                                                    
                                                                                                    
                                                                                                    
                                                                                                    
                                                                                                    
                                                                                                    
                           
<?xpacket end="w"?></metadata>
<defs>
    <style>
      .cls-1 {
        fill: none;
        stroke: #d1d7e0;
        stroke-width: 2px;
        stroke-dasharray: 10 20;
        fill-rule: evenodd;
      }
    </style>
  </defs>
  <path id="rocket-way" class="cls-1" d="M-1,8633s101.9-199.95,270-260,161.2,36.89,284-23,103.292-166.21,2-139-191.854-59.3-76-178,99-104,99-104" transform="translate(0 -7925.41)"/>
</svg>
